Homework 9 Modeling Practice - Continuation of Homework 8
…
#originally got an error: what I think came from the degree symbol in one of the attributes.  the wild internet provided the locale = latin1 solution!
seoul_bike_data <- read_csv('https://www4.stat.ncsu.edu/~online/datasets/SeoulBikeData.csv', locale = locale(encoding = 'latin1'))

Rows: 8760 Columns: 14
── Column specification ────────────────────────────────────────────────────────
Delimiter: ","
chr  (4): Date, Seasons, Holiday, Functioning Day
dbl (10): Rented Bike Count, Hour, Temperature(°C), Humidity(%), Wind speed ...

ℹ Use `spec()` to retrieve the full column specification for this data.
ℹ Specify the column types or set `show_col_types = FALSE` to quiet this message.

seoul_bike_data

# A tibble: 8,760 × 14
   Date       `Rented Bike Count`  Hour `Temperature(°C)` `Humidity(%)`
   <chr>                    <dbl> <dbl>             <dbl>         <dbl>
 1 01/12/2017                 254     0              -5.2            37
 2 01/12/2017                 204     1              -5.5            38
 3 01/12/2017                 173     2              -6              39
 4 01/12/2017                 107     3              -6.2            40
 5 01/12/2017                  78     4              -6              36
 6 01/12/2017                 100     5              -6.4            37
 7 01/12/2017                 181     6              -6.6            35
 8 01/12/2017                 460     7              -7.4            38
 9 01/12/2017                 930     8              -7.6            37
10 01/12/2017                 490     9              -6.5            27
# ℹ 8,750 more rows
# ℹ 9 more variables: `Wind speed (m/s)` <dbl>, `Visibility (10m)` <dbl>,
#   `Dew point temperature(°C)` <dbl>, `Solar Radiation (MJ/m2)` <dbl>,
#   `Rainfall(mm)` <dbl>, `Snowfall (cm)` <dbl>, Seasons <chr>, Holiday <chr>,
#   `Functioning Day` <chr>
…
Now, we’ll summarize across the hours so that each day has one observation associated with it. We are grouping by Date.

seoul_bike_data |>
  group_by(date) |>
  filter(function_day == 'Yes') |>
  summarize(across(rented_bike_count, .fns = list("mean" = mean, 
                                       "median" = median), .names = "{.fn}_{.col}"))

# A tibble: 353 × 3
   date       mean_rented_bike_count median_rented_bike_count
   <chr>                       <dbl>                    <dbl>
 1 01/01/2018                   179.                    174. 
 2 01/02/2018                   224.                    238. 
 3 01/03/2018                   214.                    190. 
 4 01/04/2018                   724.                    662. 
 5 01/05/2018                  1118.                   1092  
 6 01/06/2018                  1330.                   1156  
 7 01/07/2018                   135.                     22.5
 8 01/08/2018                   863                     673  
 9 01/09/2018                  1084.                   1034. 
10 01/10/2018                  1163.                   1122. 
# ℹ 343 more rows
…
`summarise()` has grouped output by 'date', 'seasons'. You can override using
the `.groups` argument.

new_bike_data

# A tibble: 365 × 14
# Groups:   date, seasons [365]
   date       seasons holiday    sum_rented_bike_count sum_rainfall sum_snowfall
   <date>     <fct>   <fct>                      <dbl>        <dbl>        <dbl>
 1 2018-01-01 Winter  Holiday                     4290          0            0  
 2 2018-02-01 Winter  No Holiday                  5377          0           21.7
 3 2018-03-01 Spring  Holiday                     5132          2.5          0  
 4 2018-04-01 Spring  No Holiday                 17388          0            0  
 5 2018-05-01 Spring  Holiday                    26820          0            0  
 6 2018-06-01 Summer  No Holiday                 31928          0            0  
 7 2018-07-01 Summer  No Holiday                  3231         81            0  
 8 2018-08-01 Summer  No Holiday                 20712          0            0  
 9 2018-09-01 Autumn  No Holiday                 26010          0            0  
10 2018-10-01 Autumn  No Holiday                 27909          0            0  
# ℹ 355 more rows
# ℹ 8 more variables: mean_celcius_temp <dbl>, mean_percent_humidity <dbl>,
#   mean_wind_speed <dbl>, mean_visib <dbl>, mean_dew_point_temp <dbl>,
#   mean_solar_rad <dbl>, mean_rainfall <dbl>, mean_snowfall <dbl>
…
num_vars <- new_bike_data |>
  select(sum_rented_bike_count, sum_rainfall, sum_snowfall, mean_celcius_temp, mean_percent_humidity, mean_wind_speed, mean_visib, mean_dew_point_temp, mean_solar_rad, mean_rainfall, mean_snowfall)

Adding missing grouping variables: `date`, `seasons`

num_vars

# A tibble: 365 × 13
# Groups:   date, seasons [365]
   date       seasons sum_rented_bike_count sum_rainfall sum_snowfall
   <date>     <fct>                   <dbl>        <dbl>        <dbl>
 1 2018-01-01 Winter                   4290          0            0  
 2 2018-02-01 Winter                   5377          0           21.7
 3 2018-03-01 Spring                   5132          2.5          0  
 4 2018-04-01 Spring                  17388          0            0  
 5 2018-05-01 Spring                  26820          0            0  
 6 2018-06-01 Summer                  31928          0            0  
 7 2018-07-01 Summer                   3231         81            0  
 8 2018-08-01 Summer                  20712          0            0  
 9 2018-09-01 Autumn                  26010          0            0  
10 2018-10-01 Autumn                  27909          0            0  
# ℹ 355 more rows
# ℹ 8 more variables: mean_celcius_temp <dbl>, mean_percent_humidity <dbl>,
#   mean_wind_speed <dbl>, mean_visib <dbl>, mean_dew_point_temp <dbl>,
#   mean_solar_rad <dbl>, mean_rainfall <dbl>, mean_snowfall <dbl>
…
── Conflicts ───────────────────────────────────────── tidymodels_conflicts() ──
✖ psych::%+%()      masks ggplot2::%+%()
✖ scales::alpha()   masks psych::alpha(), ggplot2::alpha()
✖ scales::discard() masks purrr::discard()
✖ dplyr::filter()   masks stats::filter()
✖ recipes::fixed()  masks stringr::fixed()
✖ dplyr::lag()      masks stats::lag()
✖ yardstick::spec() masks readr::spec()
✖ recipes::step()   masks stats::step()

seoul_data <- initial_split(new_bike_data, prop = 0.75, strata=seasons)
seoul_train <- training(seoul_data)
seoul_train

# A tibble: 273 × 14
# Groups:   date, seasons [273]
   date       seasons holiday    sum_rented_bike_count sum_rainfall sum_snowfall
   <date>     <fct>   <fct>                      <dbl>        <dbl>        <dbl>
 1 2018-09-01 Autumn  No Holiday                 26010          0              0
 2 2018-11-01 Autumn  No Holiday                 22964          0              0
 3 2018-09-02 Autumn  No Holiday                 26881          0              0
 4 2018-10-02 Autumn  No Holiday                     0          0              0
 5 2018-11-02 Autumn  No Holiday                 24077          0              0
 6 2018-09-03 Autumn  No Holiday                 10802         34.5            0
 7 2018-10-03 Autumn  Holiday                    30349          0              0
 8 2018-11-03 Autumn  No Holiday                     0          0              0
 9 2018-09-04 Autumn  No Holiday                 29529          0              0
10 2018-10-04 Autumn  No Holiday                     0          0              0
# ℹ 263 more rows
# ℹ 8 more variables: mean_celcius_temp <dbl>, mean_percent_humidity <dbl>,
#   mean_wind_speed <dbl>, mean_visib <dbl>, mean_dew_point_temp <dbl>,
#   mean_solar_rad <dbl>, mean_rainfall <dbl>, mean_snowfall <dbl>

seoul_test <- testing(seoul_data)
seoul_test

# A tibble: 92 × 14
# Groups:   date, seasons [92]
   date       seasons holiday    sum_rented_bike_count sum_rainfall sum_snowfall
   <date>     <fct>   <fct>                      <dbl>        <dbl>        <dbl>
 1 2018-04-01 Spring  No Holiday                 17388          0              0
 2 2018-05-01 Spring  Holiday                    26820          0              0
 3 2018-10-01 Autumn  No Holiday                 27909          0              0
 4 2018-07-02 Summer  No Holiday                  5240         61.5            0
 5 2018-08-03 Summer  No Holiday                 20794          0              0
 6 2018-01-04 Winter  No Holiday                  6453          0              0
 7 2018-02-04 Winter  No Holiday                  2487          0              0
 8 2018-03-04 Spring  No Holiday                  4688          2.5            0
 9 2018-07-04 Summer  No Holiday                 31781          0              0
10 2017-12-04 Winter  No Holiday                  8729          0.1            0
# ℹ 82 more rows
# ℹ 8 more variables: mean_celcius_temp <dbl>, mean_percent_humidity <dbl>,
#   mean_wind_speed <dbl>, mean_visib <dbl>, mean_dew_point_temp <dbl>,
#   mean_solar_rad <dbl>, mean_rainfall <dbl>, mean_snowfall <dbl>
…
#now cycle through our random indices vector and take the appropriate observations to each fold
#you may want to set i to 1 and run the arguments to from and to in the seq() function
#change i to 2 and do the same thing to see how this works
for(i in 1:10){
  if (i < 10) {
    fold_index <- seq(from = (i-1)*size_fold +1, to = i*size_fold, by = 1)
    folds[[i]] <- seoul_train[random_indices[fold_index], ]
  } else { #for i = 10 we need to have 1 more observation 
    fold_index <- seq(from = (i-1)*size_fold +1, to = length(random_indices), by = 1)
    folds[[i]] <- seoul_train[random_indices[fold_index], ]
  }
}
folds[[1]]

# A tibble: 27 × 14
# Groups:   date, seasons [27]
   date       seasons holiday    sum_rented_bike_count sum_rainfall sum_snowfall
   <date>     <fct>   <fct>                      <dbl>        <dbl>        <dbl>
 1 2018-08-20 Summer  No Holiday                 26827          0            0  
 2 2017-12-09 Winter  No Holiday                  7233          0            0  
 3 2018-05-05 Spring  No Holiday                 25353          0            0  
 4 2018-09-05 Autumn  No Holiday                 31114          0            0  
 5 2018-04-23 Spring  No Holiday                   977         61            0  
 6 2018-07-14 Summer  No Holiday                 25814          0            0  
 7 2018-02-12 Winter  No Holiday                  4813          0            0  
 8 2017-12-21 Winter  No Holiday                  5734          0           38.9
 9 2018-02-23 Winter  No Holiday                  5797          4.1         44.7
10 2018-02-07 Winter  No Holiday                  4697          0            0  
# ℹ 17 more rows
# ℹ 8 more variables: mean_celcius_temp <dbl>, mean_percent_humidity <dbl>,
#   mean_wind_speed <dbl>, mean_visib <dbl>, mean_dew_point_temp <dbl>,
#   mean_solar_rad <dbl>, mean_rainfall <dbl>, mean_snowfall <dbl>

folds[[2]]

# A tibble: 27 × 14
# Groups:   date, seasons [27]
   date       seasons holiday    sum_rented_bike_count sum_rainfall sum_snowfall
   <date>     <fct>   <fct>                      <dbl>        <dbl>        <dbl>
 1 2018-05-24 Spring  No Holiday                 28781          0              0
 2 2018-11-28 Autumn  No Holiday                 16524          0              0
 3 2018-11-22 Autumn  No Holiday                 16496          0              0
 4 2018-07-06 Summer  No Holiday                 33676          0              0
 5 2018-08-23 Summer  No Holiday                 15958          2.5            0
 6 2018-05-07 Spring  No Holiday                 28140          0              0
 7 2018-01-18 Winter  No Holiday                  6383          0              0
 8 2018-03-14 Spring  No Holiday                 19180          0              0
 9 2018-05-23 Spring  No Holiday                 27674         10              0
10 2018-01-11 Winter  No Holiday                  4017          0              0
# ℹ 17 more rows
# ℹ 8 more variables: mean_celcius_temp <dbl>, mean_percent_humidity <dbl>,
#   mean_wind_speed <dbl>, mean_visib <dbl>, mean_dew_point_temp <dbl>,
#   mean_solar_rad <dbl>, mean_rainfall <dbl>, mean_snowfall <dbl>
…
seoul_fit2 <- seoul_wfl2 |>
  fit(seoul_train)
seoul_fit2 |>
  tidy()

# A tibble: 23 × 5
   term                  estimate std.error statistic   p.value
   <chr>                    <dbl>     <dbl>     <dbl>     <dbl>
 1 (Intercept)             21984.     1010.    21.8    7.48e-60
 2 sum_rainfall            -1570.      660.    -2.38   1.81e- 2
 3 sum_snowfall             -115.      361.    -0.317  7.51e- 1
 4 mean_celcius_temp       -6460.     6886.    -0.938  3.49e- 1
 5 mean_percent_humidity   -3412.     2651.    -1.29   1.99e- 1
 6 mean_wind_speed          -483.      403.    -1.20   2.32e- 1
 7 mean_visib                445.      514.     0.866  3.87e- 1
 8 mean_dew_point_temp      9247.     8060.     1.15   2.52e- 1
 9 mean_solar_rad           2987.      612.     4.88   1.90e- 6
10 mean_rainfall              NA        NA     NA     NA       
# ℹ 13 more rows

seoul_fit3 <- seoul_wfl3 |>
  fit(seoul_train)
seoul_fit3|>
  tidy()

# A tibble: 33 × 5
   term                                estimate std.error statistic  p.value
   <chr>                                  <dbl>     <dbl>     <dbl>    <dbl>
 1 (Intercept)                          27347.      2852.    9.59   1.09e-18
 2 seasons_Spring                        -790.       506.   -1.56   1.20e- 1
 3 seasons_Summer                       11015.      1792.    6.15   3.19e- 9
 4 seasons_Winter                         731.      1913.    0.382  7.03e- 1
 5 holiday_No.Holiday                     792.       462.    1.71   8.77e- 2
 6 day_type_Weekend                      -800.       341.   -2.35   1.97e- 2
 7 seasons_Spring_x_holiday_No.Holiday    -44.0      594.   -0.0741 9.41e- 1
 8 seasons_Summer_x_holiday_No.Holiday    -54.1      545.   -0.0994 9.21e- 1
 9 seasons_Winter_x_holiday_No.Holiday   -139.       322.   -0.431  6.67e- 1
10 seasons_Spring_x_mean_celcius_temp    3737.       931.    4.02   7.88e- 5
# ℹ 23 more rows
…
tree_grid <- grid_regular(cost_complexity(),
                          tree_depth(),
                          levels = c(10, 5))
tree_fits <- tree_wkf |> 
  tune_grid(resamples = seoul_10_fold,
            grid = tree_grid,
            metrics = metric_set(rmse, mae))
tree_fits |> collect_metrics()

# A tibble: 100 × 8
   cost_complexity tree_depth .metric .estimator  mean     n std_err .config    
             <dbl>      <int> <chr>   <chr>      <dbl> <int>   <dbl> <chr>      
 1    0.0000000001          1 mae     standard   6241.    10    356. pre0_mod01…
 2    0.0000000001          1 rmse    standard   8069.    10    455. pre0_mod01…
 3    0.0000000001          4 mae     standard   3973.    10    282. pre0_mod02…
 4    0.0000000001          4 rmse    standard   5804.    10    525. pre0_mod02…
 5    0.0000000001          8 mae     standard   4003.    10    323. pre0_mod03…
 6    0.0000000001          8 rmse    standard   5994.    10    570. pre0_mod03…
 7    0.0000000001         11 mae     standard   4003.    10    323. pre0_mod04…
 8    0.0000000001         11 rmse    standard   5994.    10    570. pre0_mod04…
 9    0.0000000001         15 mae     standard   4003.    10    323. pre0_mod05…
10    0.0000000001         15 rmse    standard   5994.    10    570. pre0_mod05…
# ℹ 90 more rows

Our best tree fit selected with the RMSE in mind has a cost complexity of 0.001 and a tree depth of 4. We can finalize that workflow and plot it to a tree plot! So fun.

tree_fits |>
  collect_metrics() |>
  filter(.metric == "rmse") |>
  arrange(mean)

# A tibble: 50 × 8
   cost_complexity tree_depth .metric .estimator  mean     n std_err .config    
             <dbl>      <int> <chr>   <chr>      <dbl> <int>   <dbl> <chr>      
 1    0.001                 4 rmse    standard   5800.    10    526. pre0_mod37…
 2    0.0000000001          4 rmse    standard   5804.    10    525. pre0_mod02…
 3    0.000000001           4 rmse    standard   5804.    10    525. pre0_mod07…
 4    0.00000001            4 rmse    standard   5804.    10    525. pre0_mod12…
 5    0.0000001             4 rmse    standard   5804.    10    525. pre0_mod17…
 6    0.000001              4 rmse    standard   5804.    10    525. pre0_mod22…
 7    0.00001               4 rmse    standard   5804.    10    525. pre0_mod27…
 8    0.0001                4 rmse    standard   5804.    10    525. pre0_mod32…
 9    0.01                  4 rmse    standard   5930.    10    527. pre0_mod42…
10    0.0000000001          8 rmse    standard   5994.    10    570. pre0_mod03…
# ℹ 40 more rows
…
bag_grid <- grid_regular(cost_complexity(),
                          tree_depth(),
                          levels = c(10, 5))
bag_fits <- bag_wkf |> 
  tune_grid(resamples = seoul_10_fold,
            grid = bag_grid,
            metrics = metric_set(rmse, mae))
bag_fits |> collect_metrics()

# A tibble: 100 × 8
   cost_complexity tree_depth .metric .estimator  mean     n std_err .config    
             <dbl>      <int> <chr>   <chr>      <dbl> <int>   <dbl> <chr>      
 1    0.0000000001          1 mae     standard   5748.    10    321. pre0_mod01…
 2    0.0000000001          1 rmse    standard   7319.    10    452. pre0_mod01…
 3    0.0000000001          4 mae     standard   3616.    10    312. pre0_mod02…
 4    0.0000000001          4 rmse    standard   5305.    10    563. pre0_mod02…
 5    0.0000000001          8 mae     standard   3549.    10    272. pre0_mod03…
 6    0.0000000001          8 rmse    standard   5299.    10    532. pre0_mod03…
 7    0.0000000001         11 mae     standard   3582.    10    316. pre0_mod04…
 8    0.0000000001         11 rmse    standard   5430.    10    570. pre0_mod04…
 9    0.0000000001         15 mae     standard   3663.    10    315. pre0_mod05…
10    0.0000000001         15 rmse    standard   5370.    10    515. pre0_mod05…
# ℹ 90 more rows

bag_fits |>
  collect_metrics() |>
  #filter(.metric == "rmse") |>
  arrange(mean)

# A tibble: 100 × 8
   cost_complexity tree_depth .metric .estimator  mean     n std_err .config    
             <dbl>      <int> <chr>   <chr>      <dbl> <int>   <dbl> <chr>      
 1     0.0000001           15 mae     standard   3365.    10    320. pre0_mod20…
 2     0.0000001           11 mae     standard   3475.    10    325. pre0_mod19…
 3     0.000000001          8 mae     standard   3478.    10    323. pre0_mod08…
 4     0.0000001            8 mae     standard   3490.    10    325. pre0_mod18…
 5     0.000001             8 mae     standard   3494.    10    306. pre0_mod23…
 6     0.000000001         15 mae     standard   3500.    10    326. pre0_mod10…
 7     0.00000001          15 mae     standard   3500.    10    321. pre0_mod15…
 8     0.00001              8 mae     standard   3536.    10    279. pre0_mod28…
 9     0.00001             11 mae     standard   3544.    10    287. pre0_mod29…
10     0.00000001          11 mae     standard   3545.    10    356. pre0_mod14…
# ℹ 90 more rows
…
