Homework 9 Modeling Practice - Continuation of Homework 8
…
#originally got an error: what I think came from the degree symbol in one of the attributes.  the wild internet provided the locale = latin1 solution!
seoul_bike_data <- read_csv('https://www4.stat.ncsu.edu/~online/datasets/SeoulBikeData.csv', locale = locale(encoding = 'latin1'))

Rows: 8760 Columns: 14
── Column specification ────────────────────────────────────────────────────────
Delimiter: ","
chr  (4): Date, Seasons, Holiday, Functioning Day
dbl (10): Rented Bike Count, Hour, Temperature(°C), Humidity(%), Wind speed ...

ℹ Use `spec()` to retrieve the full column specification for this data.
ℹ Specify the column types or set `show_col_types = FALSE` to quiet this message.

seoul_bike_data

# A tibble: 8,760 × 14
   Date       `Rented Bike Count`  Hour `Temperature(°C)` `Humidity(%)`
   <chr>                    <dbl> <dbl>             <dbl>         <dbl>
 1 01/12/2017                 254     0              -5.2            37
 2 01/12/2017                 204     1              -5.5            38
 3 01/12/2017                 173     2              -6              39
 4 01/12/2017                 107     3              -6.2            40
 5 01/12/2017                  78     4              -6              36
 6 01/12/2017                 100     5              -6.4            37
 7 01/12/2017                 181     6              -6.6            35
 8 01/12/2017                 460     7              -7.4            38
 9 01/12/2017                 930     8              -7.6            37
10 01/12/2017                 490     9              -6.5            27
# ℹ 8,750 more rows
# ℹ 9 more variables: `Wind speed (m/s)` <dbl>, `Visibility (10m)` <dbl>,
#   `Dew point temperature(°C)` <dbl>, `Solar Radiation (MJ/m2)` <dbl>,
#   `Rainfall(mm)` <dbl>, `Snowfall (cm)` <dbl>, Seasons <chr>, Holiday <chr>,
#   `Functioning Day` <chr>
…
Now, we’ll summarize across the hours so that each day has one observation associated with it. We are grouping by Date.

seoul_bike_data |>
  group_by(date) |>
  filter(function_day == 'Yes') |>
  summarize(across(rented_bike_count, .fns = list("mean" = mean, 
                                       "median" = median), .names = "{.fn}_{.col}"))

# A tibble: 353 × 3
   date       mean_rented_bike_count median_rented_bike_count
   <chr>                       <dbl>                    <dbl>
 1 01/01/2018                   179.                    174. 
 2 01/02/2018                   224.                    238. 
 3 01/03/2018                   214.                    190. 
 4 01/04/2018                   724.                    662. 
 5 01/05/2018                  1118.                   1092  
 6 01/06/2018                  1330.                   1156  
 7 01/07/2018                   135.                     22.5
 8 01/08/2018                   863                     673  
 9 01/09/2018                  1084.                   1034. 
10 01/10/2018                  1163.                   1122. 
# ℹ 343 more rows
…
`summarise()` has grouped output by 'date', 'seasons'. You can override using
the `.groups` argument.

new_bike_data

# A tibble: 365 × 14
# Groups:   date, seasons [365]
   date       seasons holiday    sum_rented_bike_count sum_rainfall sum_snowfall
   <date>     <fct>   <fct>                      <dbl>        <dbl>        <dbl>
 1 2018-01-01 Winter  Holiday                     4290          0            0  
 2 2018-02-01 Winter  No Holiday                  5377          0           21.7
 3 2018-03-01 Spring  Holiday                     5132          2.5          0  
 4 2018-04-01 Spring  No Holiday                 17388          0            0  
 5 2018-05-01 Spring  Holiday                    26820          0            0  
 6 2018-06-01 Summer  No Holiday                 31928          0            0  
 7 2018-07-01 Summer  No Holiday                  3231         81            0  
 8 2018-08-01 Summer  No Holiday                 20712          0            0  
 9 2018-09-01 Autumn  No Holiday                 26010          0            0  
10 2018-10-01 Autumn  No Holiday                 27909          0            0  
# ℹ 355 more rows
# ℹ 8 more variables: mean_celcius_temp <dbl>, mean_percent_humidity <dbl>,
#   mean_wind_speed <dbl>, mean_visib <dbl>, mean_dew_point_temp <dbl>,
#   mean_solar_rad <dbl>, mean_rainfall <dbl>, mean_snowfall <dbl>
…
num_vars <- new_bike_data |>
  select(sum_rented_bike_count, sum_rainfall, sum_snowfall, mean_celcius_temp, mean_percent_humidity, mean_wind_speed, mean_visib, mean_dew_point_temp, mean_solar_rad, mean_rainfall, mean_snowfall)

Adding missing grouping variables: `date`, `seasons`

num_vars

# A tibble: 365 × 13
# Groups:   date, seasons [365]
   date       seasons sum_rented_bike_count sum_rainfall sum_snowfall
   <date>     <fct>                   <dbl>        <dbl>        <dbl>
 1 2018-01-01 Winter                   4290          0            0  
 2 2018-02-01 Winter                   5377          0           21.7
 3 2018-03-01 Spring                   5132          2.5          0  
 4 2018-04-01 Spring                  17388          0            0  
 5 2018-05-01 Spring                  26820          0            0  
 6 2018-06-01 Summer                  31928          0            0  
 7 2018-07-01 Summer                   3231         81            0  
 8 2018-08-01 Summer                  20712          0            0  
 9 2018-09-01 Autumn                  26010          0            0  
10 2018-10-01 Autumn                  27909          0            0  
# ℹ 355 more rows
# ℹ 8 more variables: mean_celcius_temp <dbl>, mean_percent_humidity <dbl>,
#   mean_wind_speed <dbl>, mean_visib <dbl>, mean_dew_point_temp <dbl>,
#   mean_solar_rad <dbl>, mean_rainfall <dbl>, mean_snowfall <dbl>
…
── Conflicts ───────────────────────────────────────── tidymodels_conflicts() ──
✖ psych::%+%()      masks ggplot2::%+%()
✖ scales::alpha()   masks psych::alpha(), ggplot2::alpha()
✖ scales::discard() masks purrr::discard()
✖ dplyr::filter()   masks stats::filter()
✖ recipes::fixed()  masks stringr::fixed()
✖ dplyr::lag()      masks stats::lag()
✖ yardstick::spec() masks readr::spec()
✖ recipes::step()   masks stats::step()

seoul_data <- initial_split(new_bike_data, prop = 0.75, strata=seasons)
seoul_train <- training(seoul_data)
seoul_train

# A tibble: 273 × 14
# Groups:   date, seasons [273]
   date       seasons holiday    sum_rented_bike_count sum_rainfall sum_snowfall
   <date>     <fct>   <fct>                      <dbl>        <dbl>        <dbl>
 1 2018-09-01 Autumn  No Holiday                 26010          0              0
 2 2018-11-01 Autumn  No Holiday                 22964          0              0
 3 2018-09-03 Autumn  No Holiday                 10802         34.5            0
 4 2018-10-03 Autumn  Holiday                    30349          0              0
 5 2018-11-03 Autumn  No Holiday                     0          0              0
 6 2018-09-04 Autumn  No Holiday                 29529          0              0
 7 2018-10-04 Autumn  No Holiday                     0          0              0
 8 2018-11-04 Autumn  No Holiday                 20471          0              0
 9 2018-09-05 Autumn  No Holiday                 31114          0              0
10 2018-10-05 Autumn  No Holiday                  4522         35.5            0
# ℹ 263 more rows
# ℹ 8 more variables: mean_celcius_temp <dbl>, mean_percent_humidity <dbl>,
#   mean_wind_speed <dbl>, mean_visib <dbl>, mean_dew_point_temp <dbl>,
#   mean_solar_rad <dbl>, mean_rainfall <dbl>, mean_snowfall <dbl>

seoul_test <- testing(seoul_data)
seoul_test

# A tibble: 92 × 14
# Groups:   date, seasons [92]
   date       seasons holiday    sum_rented_bike_count sum_rainfall sum_snowfall
   <date>     <fct>   <fct>                      <dbl>        <dbl>        <dbl>
 1 2018-02-01 Winter  No Holiday                  5377          0           21.7
 2 2018-03-01 Spring  Holiday                     5132          2.5          0  
 3 2018-10-01 Autumn  No Holiday                 27909          0            0  
 4 2018-02-02 Winter  No Holiday                  5954          0            0  
 5 2018-09-02 Autumn  No Holiday                 26881          0            0  
 6 2018-10-02 Autumn  No Holiday                     0          0            0  
 7 2018-11-02 Autumn  No Holiday                 24077          0            0  
 8 2018-05-03 Spring  No Holiday                 21027          1            0  
 9 2018-07-03 Summer  No Holiday                 29293          0.6          0  
10 2018-03-04 Spring  No Holiday                  4688          2.5          0  
# ℹ 82 more rows
# ℹ 8 more variables: mean_celcius_temp <dbl>, mean_percent_humidity <dbl>,
#   mean_wind_speed <dbl>, mean_visib <dbl>, mean_dew_point_temp <dbl>,
#   mean_solar_rad <dbl>, mean_rainfall <dbl>, mean_snowfall <dbl>
…
#now cycle through our random indices vector and take the appropriate observations to each fold
#you may want to set i to 1 and run the arguments to from and to in the seq() function
#change i to 2 and do the same thing to see how this works
for(i in 1:10){
  if (i < 10) {
    fold_index <- seq(from = (i-1)*size_fold +1, to = i*size_fold, by = 1)
    folds[[i]] <- seoul_train[random_indices[fold_index], ]
  } else { #for i = 10 we need to have 1 more observation 
    fold_index <- seq(from = (i-1)*size_fold +1, to = length(random_indices), by = 1)
    folds[[i]] <- seoul_train[random_indices[fold_index], ]
  }
}
folds[[1]]

# A tibble: 27 × 14
# Groups:   date, seasons [27]
   date       seasons holiday    sum_rented_bike_count sum_rainfall sum_snowfall
   <date>     <fct>   <fct>                      <dbl>        <dbl>        <dbl>
 1 2018-07-20 Summer  No Holiday                 26699          0            0  
 2 2018-01-09 Winter  No Holiday                  5500          0           10.8
 3 2018-05-05 Spring  No Holiday                 25353          0            0  
 4 2018-10-06 Autumn  No Holiday                 16037         56.5          0  
 5 2018-05-24 Spring  No Holiday                 28781          0            0  
 6 2018-06-14 Summer  No Holiday                 23818         29            0  
 7 2018-01-11 Winter  No Holiday                  4017          0            0  
 8 2018-02-23 Winter  No Holiday                  5797          4.1         44.7
 9 2018-02-24 Winter  No Holiday                  6356          0            0  
10 2017-12-06 Winter  No Holiday                  6669          1.3          8.6
# ℹ 17 more rows
# ℹ 8 more variables: mean_celcius_temp <dbl>, mean_percent_humidity <dbl>,
#   mean_wind_speed <dbl>, mean_visib <dbl>, mean_dew_point_temp <dbl>,
#   mean_solar_rad <dbl>, mean_rainfall <dbl>, mean_snowfall <dbl>

folds[[2]]

# A tibble: 27 × 14
# Groups:   date, seasons [27]
   date       seasons holiday    sum_rented_bike_count sum_rainfall sum_snowfall
   <date>     <fct>   <fct>                      <dbl>        <dbl>        <dbl>
 1 2018-05-25 Spring  No Holiday                 29057          0              0
 2 2018-10-28 Autumn  No Holiday                 11589          5.5            0
 3 2018-10-21 Autumn  No Holiday                 23906          0              0
 4 2018-06-06 Summer  Holiday                    30498          0              0
 5 2018-08-22 Summer  No Holiday                 26072          0              0
 6 2018-05-07 Spring  No Holiday                 28140          0              0
 7 2018-02-17 Winter  Holiday                     3118          0              0
 8 2018-04-13 Spring  No Holiday                 23240          0              0
 9 2018-03-25 Spring  No Holiday                 10963          0              0
10 2018-02-10 Winter  No Holiday                  4425          0              0
# ℹ 17 more rows
# ℹ 8 more variables: mean_celcius_temp <dbl>, mean_percent_humidity <dbl>,
#   mean_wind_speed <dbl>, mean_visib <dbl>, mean_dew_point_temp <dbl>,
#   mean_solar_rad <dbl>, mean_rainfall <dbl>, mean_snowfall <dbl>
…
seoul_fit2 <- seoul_wfl2 |>
  fit(seoul_train)
seoul_fit2 |>
  tidy()

# A tibble: 23 × 5
   term                  estimate std.error statistic   p.value
   <chr>                    <dbl>     <dbl>     <dbl>     <dbl>
 1 (Intercept)             21889.      837.    26.2    9.32e-74
 2 sum_rainfall            -2599.      698.    -3.72   2.44e- 4
 3 sum_snowfall             -216.      321.    -0.672  5.02e- 1
 4 mean_celcius_temp       -3754.     5905.    -0.636  5.26e- 1
 5 mean_percent_humidity   -1671.     2261.    -0.739  4.60e- 1
 6 mean_wind_speed          -274.      339.    -0.809  4.19e- 1
 7 mean_visib                567.      459.     1.24   2.18e- 1
 8 mean_dew_point_temp      6239.     6931.     0.900  3.69e- 1
 9 mean_solar_rad           3596.      556.     6.47   5.11e-10
10 mean_rainfall              NA        NA     NA     NA       
# ℹ 13 more rows

seoul_fit3 <- seoul_wfl3 |>
  fit(seoul_train)
seoul_fit3|>
  tidy()

# A tibble: 33 × 5
   term                                estimate std.error statistic  p.value
   <chr>                                  <dbl>     <dbl>     <dbl>    <dbl>
 1 (Intercept)                          22768.      2503.     9.10  3.37e-17
 2 seasons_Spring                       -1060.       418.    -2.54  1.18e- 2
 3 seasons_Summer                        7430.      1478.     5.03  9.57e- 7
 4 seasons_Winter                       -1784.      1698.    -1.05  2.94e- 1
 5 holiday_No.Holiday                     525.       331.     1.59  1.14e- 1
 6 day_type_Weekend                      -823.       300.    -2.74  6.55e- 3
 7 seasons_Spring_x_holiday_No.Holiday     76.7      420.     0.183 8.55e- 1
 8 seasons_Summer_x_holiday_No.Holiday    174.       396.     0.441 6.60e- 1
 9 seasons_Winter_x_holiday_No.Holiday    248.       320.     0.774 4.39e- 1
10 seasons_Spring_x_mean_celcius_temp    3819.       824.     4.63  5.83e- 6
# ℹ 23 more rows
…
tree_grid <- grid_regular(cost_complexity(),
                          tree_depth(),
                          levels = c(10, 5))
tree_fits <- tree_wkf |> 
  tune_grid(resamples = seoul_10_fold,
            grid = tree_grid)
tree_fits |> collect_metrics()

# A tibble: 100 × 8
   cost_complexity tree_depth .metric .estimator     mean     n  std_err .config
             <dbl>      <int> <chr>   <chr>         <dbl> <int>    <dbl> <chr>  
 1    0.0000000001          1 rmse    standard   7516.       10 509.     pre0_m…
 2    0.0000000001          1 rsq     standard      0.460    10   0.0523 pre0_m…
 3    0.0000000001          4 rmse    standard   5830.       10 441.     pre0_m…
 4    0.0000000001          4 rsq     standard      0.664    10   0.0452 pre0_m…
 5    0.0000000001          8 rmse    standard   5945.       10 320.     pre0_m…
 6    0.0000000001          8 rsq     standard      0.663    10   0.0356 pre0_m…
 7    0.0000000001         11 rmse    standard   5939.       10 319.     pre0_m…
 8    0.0000000001         11 rsq     standard      0.665    10   0.0350 pre0_m…
 9    0.0000000001         15 rmse    standard   5939.       10 319.     pre0_m…
10    0.0000000001         15 rsq     standard      0.665    10   0.0350 pre0_m…
# ℹ 90 more rows

tree_fits |>
  collect_metrics() |>
  filter(.metric == "rmse") |>
  arrange(mean)

# A tibble: 50 × 8
   cost_complexity tree_depth .metric .estimator  mean     n std_err .config    
             <dbl>      <int> <chr>   <chr>      <dbl> <int>   <dbl> <chr>      
 1    0.0000000001          4 rmse    standard   5830.    10    441. pre0_mod02…
 2    0.000000001           4 rmse    standard   5830.    10    441. pre0_mod07…
 3    0.00000001            4 rmse    standard   5830.    10    441. pre0_mod12…
 4    0.0000001             4 rmse    standard   5830.    10    441. pre0_mod17…
 5    0.000001              4 rmse    standard   5830.    10    441. pre0_mod22…
 6    0.00001               4 rmse    standard   5830.    10    441. pre0_mod27…
 7    0.0001                4 rmse    standard   5830.    10    441. pre0_mod32…
 8    0.001                 4 rmse    standard   5835.    10    438. pre0_mod37…
 9    0.01                  4 rmse    standard   5922.    10    415. pre0_mod42…
10    0.0000000001         11 rmse    standard   5939.    10    319. pre0_mod04…
# ℹ 40 more rows
…
